{
	"ware": "CD",
	"types": [
		{
			"type": "Singel",
			"price": [
				7,
				6,
				5,
				4,
				3,
				2,
				1,
				0.8,
				0.5
			],
			"amount": [
				250,
				500,
				1000,
				2000,
				3000,
				4000,
				5000,
				10000,
				20000
			]
		},
		{
			"type": "Album",
			"price": [
				7.5,
				6.5,
				5.5,
				4.5,
				3.5,
				2.5,
				1.5,
				0.9,
				0.7
			],
			"amount": [
				250,
				500,
				1000,
				2000,
				3000,
				4000,
				5000,
				10000,
				20000
			]
		}
	]
}